wandb: Tracking run with wandb version 0.15.12
wandb: W&B syncing is set to `offline` in this directory.  
wandb: Run `wandb online` or set WANDB_MODE=online to enable cloud syncing.
/home/zik/learning-tsp/ENTER/envs/rl4co-env/lib/python3.10/site-packages/lightning/pytorch/loggers/wandb.py:396: UserWarning: There is a wandb run already in progress and newly created instances of `WandbLogger` will reuse this run. If this is not desired, call `wandb.finish()` before instantiating `WandbLogger`.
  rank_zero_warn(
/home/zik/learning-tsp/ENTER/envs/rl4co-env/lib/python3.10/site-packages/lightning/pytorch/utilities/parsing.py:196: UserWarning: Attribute 'env' is an instance of `nn.Module` and is already saved during checkpointing. It is recommended to ignore them using `self.save_hyperparameters(ignore=['env'])`.
  rank_zero_warn(
/home/zik/learning-tsp/ENTER/envs/rl4co-env/lib/python3.10/site-packages/lightning/pytorch/utilities/parsing.py:196: UserWarning: Attribute 'policy' is an instance of `nn.Module` and is already saved during checkpointing. It is recommended to ignore them using `self.save_hyperparameters(ignore=['policy'])`.
  rank_zero_warn(
/home/zik/learning-tsp/ENTER/envs/rl4co-env/lib/python3.10/site-packages/lightning/pytorch/core/saving.py:164: UserWarning: Found keys that are not in the model state dict but in the checkpoint: ['baseline.critic.init_embedding.init_embed.weight', 'baseline.critic.init_embedding.init_embed.bias', 'baseline.critic.encoder.layers.0.0.module.Wqkv.weight', 'baseline.critic.encoder.layers.0.0.module.Wqkv.bias', 'baseline.critic.encoder.layers.0.0.module.out_proj.weight', 'baseline.critic.encoder.layers.0.0.module.out_proj.bias', 'baseline.critic.encoder.layers.0.1.normalizer.weight', 'baseline.critic.encoder.layers.0.1.normalizer.bias', 'baseline.critic.encoder.layers.0.1.normalizer.running_mean', 'baseline.critic.encoder.layers.0.1.normalizer.running_var', 'baseline.critic.encoder.layers.0.1.normalizer.num_batches_tracked', 'baseline.critic.encoder.layers.0.2.module.0.weight', 'baseline.critic.encoder.layers.0.2.module.0.bias', 'baseline.critic.encoder.layers.0.2.module.2.weight', 'baseline.critic.encoder.layers.0.2.module.2.bias', 'baseline.critic.encoder.layers.0.3.normalizer.weight', 'baseline.critic.encoder.layers.0.3.normalizer.bias', 'baseline.critic.encoder.layers.0.3.normalizer.running_mean', 'baseline.critic.encoder.layers.0.3.normalizer.running_var', 'baseline.critic.encoder.layers.0.3.normalizer.num_batches_tracked', 'baseline.critic.encoder.layers.1.0.module.Wqkv.weight', 'baseline.critic.encoder.layers.1.0.module.Wqkv.bias', 'baseline.critic.encoder.layers.1.0.module.out_proj.weight', 'baseline.critic.encoder.layers.1.0.module.out_proj.bias', 'baseline.critic.encoder.layers.1.1.normalizer.weight', 'baseline.critic.encoder.layers.1.1.normalizer.bias', 'baseline.critic.encoder.layers.1.1.normalizer.running_mean', 'baseline.critic.encoder.layers.1.1.normalizer.running_var', 'baseline.critic.encoder.layers.1.1.normalizer.num_batches_tracked', 'baseline.critic.encoder.layers.1.2.module.0.weight', 'baseline.critic.encoder.layers.1.2.module.0.bias', 'baseline.critic.encoder.layers.1.2.module.2.weight', 'baseline.critic.encoder.layers.1.2.module.2.bias', 'baseline.critic.encoder.layers.1.3.normalizer.weight', 'baseline.critic.encoder.layers.1.3.normalizer.bias', 'baseline.critic.encoder.layers.1.3.normalizer.running_mean', 'baseline.critic.encoder.layers.1.3.normalizer.running_var', 'baseline.critic.encoder.layers.1.3.normalizer.num_batches_tracked', 'baseline.critic.encoder.layers.2.0.module.Wqkv.weight', 'baseline.critic.encoder.layers.2.0.module.Wqkv.bias', 'baseline.critic.encoder.layers.2.0.module.out_proj.weight', 'baseline.critic.encoder.layers.2.0.module.out_proj.bias', 'baseline.critic.encoder.layers.2.1.normalizer.weight', 'baseline.critic.encoder.layers.2.1.normalizer.bias', 'baseline.critic.encoder.layers.2.1.normalizer.running_mean', 'baseline.critic.encoder.layers.2.1.normalizer.running_var', 'baseline.critic.encoder.layers.2.1.normalizer.num_batches_tracked', 'baseline.critic.encoder.layers.2.2.module.0.weight', 'baseline.critic.encoder.layers.2.2.module.0.bias', 'baseline.critic.encoder.layers.2.2.module.2.weight', 'baseline.critic.encoder.layers.2.2.module.2.bias', 'baseline.critic.encoder.layers.2.3.normalizer.weight', 'baseline.critic.encoder.layers.2.3.normalizer.bias', 'baseline.critic.encoder.layers.2.3.normalizer.running_mean', 'baseline.critic.encoder.layers.2.3.normalizer.running_var', 'baseline.critic.encoder.layers.2.3.normalizer.num_batches_tracked', 'baseline.critic.value_head.0.weight', 'baseline.critic.value_head.0.bias', 'baseline.critic.value_head.2.weight', 'baseline.critic.value_head.2.bias']
  rank_zero_warn(
Loading training dataset from file. This may not be desired in RL since the dataset is fixed and the agent will not be able to explore new states
Loading training dataset from file. This may not be desired in RL since the dataset is fixed and the agent will not be able to explore new states
Loading training dataset from file. This may not be desired in RL since the dataset is fixed and the agent will not be able to explore new states
Loading training dataset from file. This may not be desired in RL since the dataset is fixed and the agent will not be able to explore new states
Traceback (most recent call last):
  File "/home/zik/rl4co/ckpt_critic50.py", line 87, in <module>
    out = model(td_init_generalization.clone(), phase="test", decode_type="greedy", return_actions=True)
  File "/home/zik/learning-tsp/ENTER/envs/rl4co-env/lib/python3.10/site-packages/torch/nn/modules/module.py", line 1501, in _call_impl
    return forward_call(*args, **kwargs)
  File "/home/zik/rl4co/rl4co/models/rl/common/base.py", line 243, in forward
    return self.policy(td, env, **kwargs)
  File "/home/zik/learning-tsp/ENTER/envs/rl4co-env/lib/python3.10/site-packages/torch/nn/modules/module.py", line 1501, in _call_impl
    return forward_call(*args, **kwargs)
  File "/home/zik/rl4co/rl4co/models/zoo/common/autoregressive/policy.py", line 149, in forward
    log_p, actions, td_out = self.decoder(td, embeddings, env, **decoder_kwargs)
  File "/home/zik/learning-tsp/ENTER/envs/rl4co-env/lib/python3.10/site-packages/torch/nn/modules/module.py", line 1501, in _call_impl
    return forward_call(*args, **kwargs)
  File "/home/zik/rl4co/rl4co/models/zoo/common/autoregressive/decoder.py", line 183, in forward
    log_p, mask = self._get_log_p(cached_embeds, td, softmax_temp, num_starts)
  File "/home/zik/rl4co/rl4co/models/zoo/common/autoregressive/decoder.py", line 270, in _get_log_p
    logit_k = cached.logit_key + logit_key_dynamic
torch.cuda.OutOfMemoryError: CUDA out of memory. Tried to allocate 20.00 MiB (GPU 0; 7.80 GiB total capacity; 5.48 GiB already allocated; 16.44 MiB free; 7.10 GiB reserved in total by PyTorch) If reserved memory is >> allocated memory try setting max_split_size_mb to avoid fragmentation.  See documentation for Memory Management and PYTORCH_CUDA_ALLOC_CONF
wandb: Waiting for W&B process to finish... (failed 1).
wandb: You can sync this run to the cloud by running:
wandb: wandb sync /home/zik/rl4co/wandb/offline-run-20231119_164717-7z74dowm
wandb: Find logs at: ./wandb/offline-run-20231119_164717-7z74dowm/logs
