Traceback (most recent call last):
  File "/home/zik/learning-tsp/ENTER/bin/wandb", line 8, in <module>
    sys.exit(cli())
  File "/home/zik/learning-tsp/ENTER/lib/python3.10/site-packages/click/core.py", line 1157, in __call__
    return self.main(*args, **kwargs)
  File "/home/zik/learning-tsp/ENTER/lib/python3.10/site-packages/click/core.py", line 1078, in main
    rv = self.invoke(ctx)
  File "/home/zik/learning-tsp/ENTER/lib/python3.10/site-packages/click/core.py", line 1688, in invoke
    return _process_result(sub_ctx.command.invoke(sub_ctx))
  File "/home/zik/learning-tsp/ENTER/lib/python3.10/site-packages/click/core.py", line 1434, in invoke
    return ctx.invoke(self.callback, **ctx.params)
  File "/home/zik/learning-tsp/ENTER/lib/python3.10/site-packages/click/core.py", line 783, in invoke
    return __callback(*args, **kwargs)
  File "/home/zik/learning-tsp/ENTER/lib/python3.10/site-packages/wandb/cli/cli.py", line 102, in wrapper
    return func(*args, **kwargs)
  File "/home/zik/learning-tsp/ENTER/lib/python3.10/site-packages/wandb/cli/cli.py", line 246, in login
    wandb.login(relogin=relogin, key=key, anonymous=anon_mode, host=host, force=True)
  File "/home/zik/learning-tsp/ENTER/lib/python3.10/site-packages/wandb/sdk/wandb_login.py", line 77, in login
    configured = _login(**kwargs)
  File "/home/zik/learning-tsp/ENTER/lib/python3.10/site-packages/wandb/sdk/wandb_login.py", line 292, in _login
    wlogin.configure_api_key(key)
  File "/home/zik/learning-tsp/ENTER/lib/python3.10/site-packages/wandb/sdk/wandb_login.py", line 176, in configure_api_key
    apikey.write_key(self._settings, key)
  File "/home/zik/learning-tsp/ENTER/lib/python3.10/site-packages/wandb/sdk/lib/apikey.py", line 239, in write_key
    raise ValueError("API key must be 40 characters long, yours was %s" % len(key))
ValueError: API key must be 40 characters long, yours was 41
Traceback (most recent call last):
  File "/home/zik/rl4co/attn20_gat.py", line 5, in <module>
    from rl4co.models.nn.graph.gcn import GCNEncoder
  File "/home/zik/rl4co/rl4co/models/nn/graph/gcn.py", line 9, in <module>
    from torch_geometric.data import Batch, Data
ModuleNotFoundError: No module named 'torch_geometric'
