Traceback (most recent call last):
  File "/home/zik/rl4co/attn20_gat.py", line 11, in <module>
    wandb.init(project = "rl4co", offline=True)
TypeError: init() got an unexpected keyword argument 'offline'
